00:04:13 <bijan> bijan has joined #swig
00:16:37 <arcon> arcon has joined #swig
00:17:52 <i10neorg> i10neorg has quit
00:21:25 <kpreid> kpreid has joined #swig
00:45:56 <crschmidt> crschmidt has quit
00:46:01 <julie> julie has quit
00:46:01 <lorebot> lorebot has quit
01:14:50 <flaw> flaw has quit
01:25:05 <mortenf> mortenf has quit
01:32:49 <Arnia> Arnia has left #swig
01:36:06 <ows> ows has joined #swig
02:42:53 <Talliesin_> Talliesin_ has joined #swig
02:49:16 <Talliesin> Talliesin has quit
03:07:28 <GreyLensman> GreyLensman has joined #swig
03:13:49 <ows> ows has quit
04:01:46 <crschmidt> crschmidt has joined #swig
04:02:05 <julie> julie has joined #swig
04:02:08 <lorebot> lorebot has joined #swig
04:10:19 <bijan> bijan has quit
04:17:14 <Talliesin_> Talliesin_ has quit
04:21:12 <julie> julie has quit
04:23:01 <crschmidt> crschmidt has quit
04:23:24 <ows> ows has joined #swig
04:26:44 <lorebot> lorebot has quit
04:29:11 <md-afk> md-afk has quit
04:30:29 <shammah> shammah has quit
04:30:35 <md-afk> md-afk has joined #swig
04:32:44 <ows> ows has quit
04:33:20 <sandro> sandro has quit
04:38:33 <Talliesin> Talliesin has joined #swig
04:42:26 <ows> ows has joined #swig
04:57:48 <arcon> arcon has quit
05:03:19 <CloCKWeRX> CloCKWeRX has joined #swig
05:10:00 <GreyLensman> GreyLensman has quit
05:17:13 <ows> ows has quit
05:36:57 <aniasis> aniasis has quit
05:38:47 <bblfish_> bblfish_ has joined #swig
05:44:40 <aniasis> aniasis has joined #swig
05:53:39 <arnick> arnick has joined #swig
05:55:12 <bblfish> bblfish has quit
05:56:04 <julie> julie has joined #swig
05:56:12 <lorebot> lorebot has joined #swig
05:58:45 <crschmidt> crschmidt has joined #swig
06:12:41 <Ismael> Ismael has quit
06:34:54 <arnick> arnick has left #swig
07:28:55 <bjoern_> bjoern_ has joined #swig
07:47:56 <KjetilK> KjetilK has joined #swig
08:41:00 <KjetilK> KjetilK has quit
08:47:55 <bjoern_> bjoern_ has quit
09:04:05 <d2m> d2m has joined #swig
09:11:16 <bblfish__> bblfish__ has joined #swig
09:11:18 <bblfish__> bblfish__ is now known as bblfish
09:14:16 <bballizlife> bballizlife has joined #swig
09:22:09 <CloCKWeRX> CloCKWeRX has quit
09:22:37 <bblfish_> bblfish_ has quit
09:26:31 <bblfish__> bblfish__ has joined #swig
09:31:40 <Arnia> Arnia has joined #swig
09:40:11 <bblfish__> bblfish__ has quit
09:40:19 <bblfish> bblfish has quit
09:46:21 <grove> grove has joined #swig
10:18:05 <libby> libby has joined #swig
10:18:13 <bijan> bijan has joined #swig
10:19:39 <grove> grove has quit
10:23:09 <bska|mobile> bska|mobile has quit
10:23:27 <adr> adr has quit
10:34:16 <adr> adr has joined #swig
11:09:35 <mortenf> mortenf has joined #swig
11:34:14 <grove> grove has joined #swig
11:48:52 <shellac_> shellac_ has joined #swig
11:50:41 <shellac> shellac has quit
12:16:49 <JibberJim> JibberJim has quit
12:16:56 <Wack> Wack has joined #swig
12:27:56 <md-afk> md-afk is now known as Phurl
12:31:44 <Phurl> merry christmas all!
12:38:41 <balbinus> :)
12:39:24 <shellac_> o - o - o - o - o - o - o - o - o - o - o - o - o - o - o - o - o - o - o - o - o
12:39:32 <shellac_> * shellac_ puts up decorations
12:40:22 <ear1grey_> ear1grey_ has joined #swig
12:40:39 <mortenf> nice work shellac!
12:40:55 <balbinus> wonderful :)
12:41:23 <shellac_> now to start a fire...
12:41:33 <mortenf> don't play with matches, or...
12:41:40 <shellac_> * shellac_ grabs petrol can
12:41:47 <mortenf> good
12:42:29 <shellac_>  #swig is insured, I assume?
12:42:36 <balbinus> errr...
12:42:43 <Phurl> :)
12:42:56 <Arnia> * Arnia dons an asbestos cowl
12:43:11 <balbinus> shellac_: you'd better try in #rdfig ;)
12:43:27 <shellac_> :-)
12:44:33 <Phurl> bijan: i was wondering if there has been any updated to cwmclone since 2002?
12:44:43 <Phurl> updates
12:45:00 <bijanp> bijanp has joined #swig
12:45:01 <mortenf> * mortenf finds a double-entity-expansion bug with rapper, wonder if it's raptor or the xml lib...
12:45:49 <shellac_> Phurl: try pychiko? http://www.mindswap.org/~katz/pychinko/
12:46:16 <Phurl> great
12:46:36 <Phurl> i have seen this name before..
12:46:51 <bijan> bijan has quit
12:47:00 <shellac_> Yarden gave a nice introduction to this a foaf camp
12:47:40 <Phurl> i meed to remind  myselff to remind ttimbl to reference it from the main page and bijan to ref it from his cwmclone page..
12:47:57 <KjetilK> KjetilK has joined #swig
12:48:01 <shellac_> tell phenny
12:49:38 <mortenf> could someone with a rapper installed tell me which literal objects they get out of http://www.wasab.dk/morten/2004/12/test.rdf ?
12:50:13 <shellac_> <http://www.wasab.dk/morten/2004/12/test.rdf> <http://www.w3.org/2000/01/rdf-schema#label> "Test 1 of entities... (http://www.w3.org/2001/XMLSchemahttp://www.w3.org/2001/XMLSchema)"@en .
12:50:13 <shellac_> <http://www.wasab.dk/morten/2004/12/test.rdf> <http://www.w3.org/2000/01/rdf-schema#label> "Test 2 of entities... (http://www.w3.org/1999/02/22-rdf-syntax-ns#http://www.w3.org/1999/02/22-rdf-syntax-ns#)"^^<http://www.w3.org/2001/XMLSchemastring> .
12:50:24 <mortenf> thanks, same here...
12:50:26 <shellac_> rapper 1.4.2
12:50:54 <mortenf> those double uris in the ()' are supposed to be there just once
12:52:16 <shellac_> oh yes - how odd
12:52:33 <Phurl> phenny:please remind ttimbl to reference [http://www.mindswap.org/~katz/pychinko/|pychiko] from the main cwm page
12:52:47 <Phurl> phenny:tell ttimbl to please reference [http://www.mindswap.org/~katz/pychinko/|pychiko] from the main cwm page
12:52:53 <Phurl> phenny:tell timbl to please reference [http://www.mindswap.org/~katz/pychinko/|pychiko] from the main cwm page
12:52:58 <Phurl> dammit!
12:53:07 <mortenf> i think you need a space after :
12:53:13 <Phurl> phenny help
12:53:21 <Phurl> phenny: tell timbl to please reference [http://www.mindswap.org/~katz/pychinko/|pychiko] from the main cwm page
12:53:23 <phenny> Phurl: I'll pass that on for you when timbl is around.
12:53:27 <Phurl> :)
12:53:56 <libby_> libby_ has joined #swig
12:53:58 <Phurl> phenny: here is a tip : dont look directly into the sun!
12:58:04 <mortenf> * mortenf can't seem to find an error in rapper, sends mail to dajobe
12:58:46 <shellac_> Seems very unlikely rapper would be doing that
12:58:57 <shellac_> * shellac_ checks xml parser
12:58:59 <mortenf> right
12:59:18 <mortenf> but, i can't find anything else on my system that does the same...
12:59:33 <shellac_> mine is using libxml2.2 (it seems)
13:00:29 <shellac_> yes, you'd think someone would notice if libxml was at fault
13:00:35 <mortenf> here it's 2.6.10
13:02:09 <shellac_> it also eats the following chars
13:02:22 <mortenf> oh?
13:02:36 <shellac_> oh - ignore me - misread source
13:03:34 <grove> grove has quit
13:08:49 <shellac_> just tried xsltproc identity transform - uses same parser, but no dupes
13:08:57 <mortenf> yep, same here
13:09:32 <mortenf> i think it must be in the expansion code, not the definition code, since entities in attributes are ok
13:09:48 <shellac_> yep
13:14:44 <mortenf> i give up, i'll just feed it through an identity transform for now
13:15:47 <shellac_> I was just looking at the source, but have only demonstrated my lack of C skills
13:15:56 <mortenf> heh
13:16:01 <shellac_> might try it with expat, though
13:32:21 <danbri> http://www.kanzaki.com/memo/2004/12/24-1
13:32:21 <dc_swig> A: http://www.kanzaki.com/memo/2004/12/24-1 from danbri
13:32:35 <shellac_> ooh
13:33:01 <shellac_> translation please, dan
13:33:19 <danbri> A:|"RDF/OWL入門 刷り上がり" (An Introduction to RDF/OWL), by Masahide Kanzaki
13:33:20 <dc_swig> Titled item A.
13:33:31 <danbri> A:A great reason to learn Japanese!
13:33:32 <dc_swig> Added comment A1.
13:36:28 <danbri> A:I saw some drafts when I was in Tokyo for SVGOpen and had lunch w/ LibbyM, EricP, Jim Ley and Masahide Kanzaki.
13:36:29 <dc_swig> Added comment A2.
13:38:21 <libby_> A:congratulations Masahide :)
13:38:21 <dc_swig> Added comment A3.
13:38:31 <shellac_> €21 on amazon
13:39:01 <danbri> A:He was kind enough to tolerate my juvenile attempts to learn a little Japanese, and to show me some drafts-in-progress of the book. Of course I only really followed the pictures and examples, bt it is an impressive piece of work. It cover a well chosen range of topics, and even summarises RDF model theory in an appendix.
13:39:01 <dc_swig> Added comment A4.
13:39:46 <danbri> shellac, got the amazon url (for europe or us?). I only see it on Japanese amazon...
13:40:10 <shellac_> nah - I converted the price from amazon jp
13:41:06 <shellac_> tempted to buy it despite blank incomprehension on my part :-)
13:41:38 <iand> iand has quit
13:41:52 <shellac_> hmm - does 'display in english' do nothing on the amazon page?
13:42:16 <libby_> danbri and I asked ericp to get us some...
13:42:23 <shellac_> oh - changes some buttons
13:42:34 <danbri> A:The book has a [http://www.kanzaki.com/book/rdf/|homepage] , [http://www.kanzaki.com/book/rdf/toc-detail.html|table of contents]. There's also a  sample PDF (though my PDF reader seems I18N-impaired).
13:42:34 <dc_swig> Added comment A5.
13:43:18 <shellac_> where's the sample?
13:43:33 <shellac_> ok - being dense
13:44:07 <danbri> A:Nearby in the Web[http://www.kanzaki.com/docs/sw/|Kanzaki's semweb pages], several of which have a good few English annotations, as well as images  and examples.
13:44:07 <dc_swig> Added comment A6.
13:45:51 <danbri> A6:Nearby in the Web: [http://www.kanzaki.com/docs/sw/|Kanzaki's semweb pages], several of which have a good few English annotations, as well as images  and examples.
13:45:52 <dc_swig> Replaced comment A6.
13:46:33 <shellac_> hmm - apple pdf viewer works, yet adobe's doesn't?
13:48:26 <danbri> it's some gnome thing i used
13:48:49 <danbri> hmm can i sign up for amazon japan without being able to read the forms? tricky :)
13:49:13 <shellac_> I find kpdf pretty good
13:49:45 <shellac_> actually I find kde's stuff good generally - why do I use gnome?
13:52:17 <libby_> libby_ has quit
13:52:21 <Arnia> Cos Gnome will have an RDF/Ontology layer soon?
13:53:20 <Morbus> Morbus has joined #swig
13:59:21 <mortenf> shellac_, news (old, via mail) from dajobe: http://journal.dajobe.org/journal/archives/2004_11.html#001748
13:59:45 <shellac_> oops
14:00:17 <shellac_> cheers morten
14:12:04 <Morbus> Morbus has quit
14:23:05 <Morbus> Morbus has joined #swig
14:28:18 <libby> libby has quit
14:37:42 <balbinus_> balbinus_ has joined #swig
14:38:53 <ear1grey_> http://boakes.org/index.php?p=173
14:38:53 <dc_swig> B: http://boakes.org/index.php?p=173 from ear1grey_
14:39:16 <ear1grey_> B:|Merry Xmas Y'all
14:39:17 <dc_swig> Titled item B.
14:39:27 <balbinus> balbinus has quit
14:39:30 <balbinus_> balbinus_ is now known as balbinus
14:39:58 <ear1grey_> B:and thanks for answering all the questions...
14:39:59 <dc_swig> Added comment B1.
14:40:06 <sandro> sandro has joined #swig
14:41:26 <Arnia> Hum... question about Redland. Is there any way to get the blank id for a blanknode in the C# bindings?
14:50:36 <mortenf> mortenf has quit
14:56:16 <eaon> eaon has quit
14:58:12 <danja> danja has joined #swig
15:01:52 <ear1grey_> ear1grey_ has quit
15:03:03 <libby> libby has joined #swig
15:06:29 <libby> A:Masahide's documentation on calendaring and image annotation was better than anything else we did for English speakers, even though it was mostly in Japanese...!
15:06:30 <dc_swig> Added comment A7.
15:07:09 <Phurl> * Phurl is hacking Nemerle to run on dotgnu pnet
15:11:19 <Arnia> That must be hard work
15:14:09 <Phurl> it is fun work
15:14:37 <Phurl> i am removing the code from msil disassemblies that is causeing problems and reassembling
15:15:35 <Arnia> I hope you plan on telling them upstream :)
15:16:00 <Arnia> Woo... freged installs. My autotools foo isn't that bad :)
15:16:31 <Phurl> Arnia: i am workign with the developer
15:16:39 <Phurl> and of course i publish all my stuff
15:16:53 <Phurl> i am not someone who profits from excluding other people from my knowledge
15:17:27 <Phurl> i profit by getting things done that other people say are impossible
15:18:35 <Arnia> I wasn't accusing you of anything. Just ensuring that Nemerle gets better
15:19:04 <Arnia> Hum... I really need to add logging to this system :(
15:19:59 <Phurl> yes, i was just telling you that because i see that there is a problem between closed research and open source that i want to get off my chest :)
15:20:16 <Phurl> and i want to help make n. better, yes
15:25:45 <Arnia> My research isn't closed. Its just not hasty
15:26:56 <Phurl> yes, and i have alot of respect for you and the work done by the people here. I have learned very much because you all have gone out of your way to make things accessable.
15:40:58 <KjetilK> KjetilK has quit
15:46:15 <bijanp> * bijanp thinks its impossible for Phurl to exclude other people from his knowledge
15:46:17 <bijanp> er
15:46:26 <bijanp> * bijanp *says* that
15:46:35 <bijanp> * bijanp waits for the conundrum police
15:47:05 <bijanp> Er.. <sigh/> tired
15:47:16 <bijanp> Condundrum doesn't quite work
15:47:19 <bijanp> have to get inthe profit
15:47:23 <Phurl> bijanp: if i have none, then i cannot exclude you from it
15:47:28 <bijanp> bijanp is now known as bijan
15:47:29 <Phurl> :)
15:48:01 <bijan> * bijan always excludes everyone from his knowledge
15:48:07 <bijan> But I nevertheless fail to profit!
15:48:12 <Phurl> hehe
15:48:40 <bijan> But I exclude them by giving it to them in a way that hurts their brain
15:48:58 <Arnia> hear hear
15:50:27 <Phurl> yes, encoding it in such a way that the cost of decoding is prohibitive, unless you have the same context as the author.
15:50:32 <NachoMan> NachoMan has joined #swig
15:50:42 <bijan> No, I just use pointing things
15:50:52 <bijan> Sticks, small forks, overcooked falafel
15:50:58 <Phurl> :)
15:51:47 <bijan> And if it weren't prohibitive even for people with teh  *same* context, I couldn't effectively exclude them!
15:51:50 <Phurl> anyway, bijan i wanted to try out using something like yap to convert this cwm clone to c
15:52:19 <Phurl> to see what type of compiler level optimiztions can be gained on top
15:52:34 <bijan> Not my prolog thing?
15:52:37 <bijan> TOtally not worth it
15:52:40 <Phurl> yeah,
15:52:49 <Phurl> i mean this new one
15:52:52 <bijan> I cannot stress enough what a waste of time that would be ;)
15:52:54 <bijan> Ah
15:52:57 <bijan> What new one?
15:52:59 <Phurl> * Phurl trys to remember the new
15:53:01 <Phurl> name
15:53:02 <bijan> Share your knowledge?
15:53:05 <bijan> Profit!
15:53:39 <Phurl> pychiko
15:53:45 <bijan> Ah
15:53:46 <Phurl> :)
15:53:51 <Phurl> that one
15:53:59 <bijan> Yap?
15:54:03 <Phurl> with a 5 times gain over cwm
15:54:09 <bijan> * bijan mistoke that for  Yet Another Prolog
15:54:10 <Phurl> yeah,
15:54:18 <Phurl> i think it is yap
15:54:19 <bijan> Well, pychinko is in python :)
15:54:29 <bijan> So, first you have to write a python2prolog
15:54:33 <Phurl> one that has a back end in c
15:54:33 <bijan> Get busy!
15:54:37 <Phurl> DAMN!
15:54:41 <bijan> Several do :)
15:54:49 <Phurl> i thought you were the prolog man
15:54:49 <bijan> I would just try Psycho or the like
15:54:52 <bijan> I am :)
15:55:17 <bijan> See! My knowledge; it hurts your brain!
15:55:22 <Phurl> bijan: i am dissapointed that you are working in such a lowly language such as python! ;)
15:55:25 <bijan> * bijan does the happy brain destroying dance
15:55:47 <bijan> I'm writing an rdf/xml parser in scheme
15:55:49 <bijan> Does that help?
15:55:50 <Phurl> yes, bijan 1 : Phurl 0
15:55:51 <danja> danja has quit
15:56:38 <Phurl> well, i would like to have some way to convert n3 statements that describe traversals over rdf in such a way that they can be converted to efficient c code
15:56:43 <libby> oh, missed danja :(
15:57:01 <Phurl> i figured if you have n3 => prolog => c
15:57:03 <Phurl> that might work
15:57:09 <Arnia> ^ns dc
15:57:09 <julie>  The URL for the dc namespace is http://purl.org/dc/elements/1.1/
15:57:23 <bijan> Not worth it
15:57:37 <bijan> I mean, take my prolog based one
15:57:49 <Phurl> i never got it to run
15:57:57 <Phurl> or could not figure out how to use it
15:57:58 <bijan> First off, recognize that most prologs with a "C back end" with stick you with a runtime
15:58:09 <Phurl> yes, but one that is in c
15:58:14 <Phurl> i can embed that into the gcc
15:58:20 <bijan> Yes, but most prologs are already written in c
15:58:40 <Phurl> i want to be able to wrap a c programs data structures in a rdf form
15:58:42 <bijan> so the difference between compiling swiprolog and compiling a YAP genrated thing is likely to be a modest one of space
15:58:45 <bijan> Not performance
15:58:54 <Phurl> and write logical statemetns about it in n3
15:59:04 <Arnia> Woo... just killed Frege again. I love marshalling errors :)
15:59:16 <Phurl> and then be able to traverse the data structures in memory as if they were an rdf storage
15:59:23 <bijan> Poor Frege...doesn't he deserve some peace?
15:59:55 <Phurl> so swiprolog has a c backend?
16:00:13 <bijan> No
16:00:21 <bijan> It's *written* in C
16:00:57 <bijan> Yap is faster for other reasons than merely having a C backend
16:01:02 <Arnia> bijan: he gave us the illusion of universal truth, I think giving him many non-universal deaths is an appropriate punishment ;)
16:01:19 <Arnia> re this discussion, I'd use psycho with pychinko :)
16:01:26 <Phurl> i see
16:01:47 <Phurl> well, i remember doing some work with yap
16:02:16 <Phurl> anyway so, there is no generic cwm clone in prolog or any language that generated c
16:02:27 <Phurl> what 'bout haskal?
16:02:39 <Arnia> Hmm... this is a weird error. I get the following complaint from Redland [[
16:02:41 <Arnia> rdf_parser.c:372: (librdf_parser_parse_string_as_stream) assertion failed: object pointer of type librdf_parser is NULL.
16:02:42 <Arnia> ]]
16:02:50 <bijan> I would definitely consider pycho first
16:02:54 <Arnia> But I definitely have a parser object
16:03:02 <bijan> Phurl, not at the moment, no
16:03:03 <Phurl> but what type of parser
16:03:20 <bijan> If you were going that route, I'd write a n32clips translater
16:03:22 <Arnia> Phurl: Haskell is nice, compiles efficiently... but are you good enough at it to write a reasoner?
16:03:32 <Phurl> parse string, maybe it cannot figure out the type
16:03:44 <Phurl> Arnia: well, I have the rules i need
16:03:52 <Phurl> right now i dont need a reasoner
16:03:58 <Phurl> just a forward walker
16:04:12 <Phurl> i have a protype in perl
16:04:41 <Phurl> stuff like if you are at this type of node, follow that path to this type of node
16:04:53 <Phurl> or loop over this until this condition is met
16:05:07 <Phurl> i am writing up an ontology for what is needed
16:05:14 <Phurl> and want to make a fast engine to execute it
16:05:32 <Phurl> so the description of the traversals will be like n3
16:05:45 <Phurl> and the engine can be embedded in the gcc
16:06:01 <Phurl> that will eliminate the intermediate representaion
16:06:13 <Phurl> but give you a structured data format
16:06:21 <bijan> Hmm. You might want to look at Ivanhoe
16:06:25 <Phurl> that can be converted to rdf at any time
16:06:25 <Phurl> ok
16:06:26 <bijan> (not in C, but for ideas)
16:06:28 <Phurl> * Phurl goodles
16:06:32 <Phurl> googles
16:07:35 <Phurl> that reminds me, i need to write something in my blog for christmas
16:08:10 <NachoMan> NachoMan has quit
16:11:21 <Arnia> Grr... don't seem to be getting a parser
16:11:33 <Arnia> As in the pointer isn't being created
16:12:56 <Arnia> But it only happens if I try and create an ntriples parser
16:13:02 <Arnia> (which is what I need)
16:18:56 <Phurl> i see
16:19:11 <Phurl> well, rdfproc can handle it
16:19:17 <Phurl> what language are you working in?
16:21:48 <Arnia> C#
16:22:04 <Arnia> Think I might use Drive to handle it
16:22:16 <Arnia> Or at least repurpose their code
16:22:43 <bska|mobile> bska|mobile has joined #swig
16:24:52 <timbl> timbl has joined #swig
16:25:54 <Phurl> i see
16:26:12 <Arnia> Just adds another ten minutes work on :)
16:26:20 <Phurl> i dont know if i can help you much.
16:26:30 <Arnia> Nah, its fine. I know what to do
16:35:35 <Phurl> I have not even got around to try and catch up on the c# interface
16:37:04 <Arnia> Its a bit temperamental. But I don't have the language binding experience to debug it with my time limitations
17:04:29 <Phurl> well
17:04:52 <Phurl> i have the experience with language bindings, c# swig and redland, and pnet
17:05:30 <Phurl> but i still have not gotten over the fact that redland does not support pnet, and that pnet seems to have been deleted from the minds of swig.
17:05:58 <Phurl> when i find some time, i will test the port to pnet and start pushing it again
17:06:02 <Phurl> http://rdfintrospector.blogspot.com/2004/12/idea-of-introspectorswsh.html
17:06:02 <dc_swig> C: http://rdfintrospector.blogspot.com/2004/12/idea-of-introspectorswsh.html from Phurl
17:06:33 <Phurl> C:|Proposal for the SWSH, the SemanticWebSHell
17:06:33 <dc_swig> Titled item C.
17:07:22 <Phurl> C:Unifies all the ideas of the introspector under one node.
17:07:22 <dc_swig> Added comment C1.
17:07:39 <Phurl> one ring to bind them....
17:10:36 <Arnia> Heh...
17:18:35 <bska|mobile> bska|mobile has quit
17:31:49 <topping> topping has joined #swig
17:43:51 <Arnia> How do I make Redland's bdb hashing persistent across sessions? At the moment every time I restart my daemon, it forgets everything it knew
17:44:31 <Arnia> I've tried with the options string new='yes' and new='no' and neither seems to make a difference
17:51:37 <Morbus> Morbus has quit
17:53:06 <Phurl> Arnia: you need to set up a variable
17:53:17 <Phurl> not hash, but bdb iirc
17:53:28 <Phurl> let me check
17:53:54 <Arnia> My options look like  "new='yes',contexts='yes',hash-type='bdb',dir='{0}'"
17:56:04 <Phurl> yeah
17:56:06 <Phurl> that is good
17:56:09 <Phurl> get rid of new
17:56:13 <Arnia> Tried that
17:56:15 <Arnia> Doesn't work
17:56:17 <Phurl> just remove the option
17:56:21 <yosi> yosi has joined #swig
17:56:22 <Phurl> and dir = .
17:56:46 <Arnia> No... Directory HAS to be a specific directory on the system (.frege under user home)
17:56:49 <Phurl> have you seen any .db files in you pdb
17:56:56 <Arnia> I have db files
17:56:59 <Phurl> ok
17:57:02 <Arnia> They just wipe every restart
17:57:05 <Phurl> i used "."
17:57:31 <Phurl> this is strange
17:57:43 <JibberJim> JibberJim has joined #swig
17:57:53 <Phurl> are you sure you are doing it right?
17:57:58 <Phurl> make a simple test program
17:58:03 <Phurl> without all the other stuff
17:58:12 <Phurl> could be a bug
17:58:34 <Phurl> with a simple perl prog i can show you it works
17:58:38 <Phurl> hmm
18:00:09 <Arnia> I'm very sure I'm doing it right. The 'other stuff' are just thin wrappers. The storage is created, the model initialises correctly. I can do all my queries correctly. Then I shutdown the daemon and it immediate gets amnesia
18:04:01 <Arnia> Right, it doesn't touch the .db files after startup, but recreates them every start up
18:04:14 <Arnia> Let me try adding write='true'
18:05:20 <Arnia> No effect
18:11:13 <Phurl> HMM
18:11:33 <Phurl> let me check a test perl script
18:19:46 <Phurl>  http://rafb.net/paste/results/v5Gy6y62.html
18:20:06 <Phurl> you call it like this testwrite.pl Database id
18:20:11 <Phurl> and it will add this id to the database
18:20:19 <Phurl> if you call it twice with 2 ides
18:20:24 <Phurl> the first one is still in the database
18:20:35 <Phurl> so it does not delete the store
18:20:45 <Phurl> you rdfproc to verify
18:20:52 <Phurl> Arnia: ok?
18:22:43 <Arnia> Ok...
18:25:44 <Phurl> so, you can easily translate that 1-1 into c#
18:25:49 <Phurl> and test it the same way
18:32:41 <Arnia> Huzzah... its working now
18:34:15 <crschmidt> Did you change anything?
18:34:27 <Arnia> Yes... I forgot to Sync :)
18:34:46 <Arnia> I stupidly assumed it would know to sync when I added and removed stuff ;)
18:34:53 <crschmidt> Huh
18:35:08 <crschmidt> I think the MySQL backend does
18:35:25 <Arnia> Yeah, but I can't really use the MySQL backend tbh ;)
18:35:39 <crschmidt> * crschmidt nods.
18:35:44 <Arnia> * Arnia can see the Gnome project getting a little peeved if I brought in that dependency
18:35:47 <crschmidt> I understand that, just mentioning.
18:35:55 <crschmidt> are you using bdb?
18:36:00 <Arnia> Yeah
18:36:01 <crschmidt> Or something else?
18:36:02 <crschmidt> * crschmidt nods
18:36:05 <crschmidt> Good choice
18:36:16 <crschmidt> * crschmidt is proud of himself for learning how rdflib works
18:36:45 <Arnia> It should be efficient enough for a demo... once I get other contributors on board we'll be able to make it really tuned
18:36:52 <Arnia> RDFLib is nice
18:37:16 <crschmidt> I'm thinking of just writing a Redland layer between rdflib and the actual code, so that I could offer either an rdflib version of something, or add some wrapping functions and call it a Redland version
18:37:24 <crschmidt> the APIs are very similar
18:38:23 <Arnia> Yeah
18:38:38 <Arnia> * Arnia goes to figure out how to say 'delete from ALL contexts'
18:39:44 <crschmidt> for statement, context in model.stream_with_contexts(): delete model[statement, context]; put model[statement]
18:40:03 <Arnia> Yes... now, in C# ;)
18:40:22 <crschmidt> pfft
18:40:28 <crschmidt> C# is one of those compiled languages, isn't it?
18:41:32 <crschmidt> Anyway, my photo app is coming along
18:42:02 <crschmidt> Let's you describe depictions by giving names from the existing model
18:42:18 <Arnia> Cool
18:42:26 <Arnia> * Arnia adds a hashtable of bnodes
18:42:31 <Arnia> In absolute evil terms
18:46:56 <crschmidt> Is there any way to tell if a python Generator has something in it?
18:47:35 <crschmidt> ie, if sources after sources = model.subjects(FOAF['name'], Literal(name_or_nick)) actually has any results in it
18:47:48 <Phurl> Arnia: great that i could help you
18:47:55 <Phurl> * Phurl puts on his dancing shoes
18:48:02 <Phurl> i am going out to find some chicks
18:48:36 <Phurl> Phurl is now known as MerryChristmas
18:48:39 <MerryChristmas> bye
18:48:56 <kpreid> crschmidt: AFAIK, no, because the generator can't know till it produces an element
18:49:02 <yosi> yosi has quit
18:49:03 <kpreid> (in general)
18:49:05 <balbinus> MerryChristmas: bye :)
18:49:23 <kpreid> crschmidt: but you can write a simple wrapper object which implements a 1-element buffer
18:49:39 <kpreid> (or maybe someone's done that already)
18:49:54 <crschmidt> I've just been doing a "for i in generator: list.append(i)" then checking the length of i
18:50:26 <kpreid> oh, you don't care about exhausting it?
18:50:29 <crschmidt> but that seems bad
18:50:37 <crschmidt> well, i usually run things again, which is the bad part :)
18:51:19 <libby> libby has quit
18:56:47 <pjenvey> pjenvey has quit
19:02:07 <lilo> [Global Notice] Hi all.  Happy holiday slash winter break to everyone, and thank you for using freenode. :)
19:03:13 <lilo> [Global Notice] If you're an active group, project participant or donor, with a cloak, please stop by our holiday channel.  Just join #freenode and you'll be forwarded.  Thanks!  And again, happy holidays! :)
19:09:51 <ows> ows has joined #swig
19:11:37 <ows> merry xmas
19:13:21 <Arnia> And now... I killed mono :/
19:13:34 <Arnia> It really isn't my day today
19:17:28 <crschmidt> ouch
19:20:23 <Arnia> Hum... ok the killer bug is erratic and low-down so I'll have to leave it for now
19:20:35 <Arnia> (trampoline errors)
19:20:57 <Arnia> But I'm still confused about why I can't say something like this [[[
19:21:06 <crschmidt> http://crschmidt.net/tmp/photo_generation.xml -- Output from my RDFlib based photo app
19:21:06 <dc_swig> D: http://crschmidt.net/tmp/photo_generation.xml from crschmidt
19:21:09 <Arnia> Node n1 = new Node();
19:21:39 <Arnia> Node p = new Node("http://purl.org/dc/element/1.1/title");
19:21:59 <Arnia> Node o1 = new Node("Title");
19:22:09 <Arnia> Node o2 = new Node("Title2");
19:22:53 <Arnia> model.AddStatement(new Statement(n1,p,o1));model.AddStatement(new Statement(n1,p,o2));
19:23:08 <Arnia> ]]] -- And not end up with two bNodes for n1 :p
19:25:24 <crschmidt> are you saying that n1 changes every time you use it?
19:25:57 <crschmidt> D:| Output from an RDFlib based Photo Description Application
19:25:57 <dc_swig> Titled item D.
19:26:13 <crschmidt> D: Written mostly on the two hour flight I took earlier today
19:26:13 <dc_swig> Added comment D1.
19:26:32 <crschmidt> D: I started out with Redland, and was planning to continue using it: I compiled it for my Mac.
19:26:32 <dc_swig> Added comment D2.
19:26:45 <crschmidt> D: However, I forgot to install the bindings, which made working in Python rather difficult
19:26:45 <dc_swig> Added comment D3.
19:27:07 <crschmidt> D: So, I converted it over to rdflib. Which is quite nice.
19:27:07 <dc_swig> Added comment D4.
19:28:55 <Arnia> crschmidt: Yes. Or at least it appears to. When I add triples, I store any bnodes constructed, keyed by their id in the ntriples representation. If the same ID is used again, I retrieve the bnode stored
19:29:07 <Arnia> However when that node is used in another statement it seems to get a new id
19:29:51 <crschmidt> Arnia: that seems like it might be a bug in the C# bindings: It seems like that's not the case in the Python bindings: [[[
19:29:55 <crschmidt> >>> import RDF
19:29:57 <crschmidt> >>> n = RDF.Node()
19:30:00 <crschmidt> >>> print RDF.Statement(n, RDF.Uri("foo"), RDF.Uri("foo"))
19:30:02 <crschmidt> {(r1103916406r1), [foo], [foo]}
19:30:07 <crschmidt> >>> print RDF.Statement(n, RDF.Uri("foo"), RDF.Uri("foo"))
19:30:09 <crschmidt> {(r1103916406r1), [foo], [foo]}
19:30:12 <ows> ows has quit
19:30:12 <crschmidt> ]]]
19:30:40 <Arnia> I'm thinking about reworking the system to convert bNodes to normal URIs and handing callers back the mapping performed
19:35:18 <crschmidt> D: See Also the [http://crschmidt.net/tmp/photo_generation.txt Program Output] for the selected file. It's still a bit verbose, but not too bad, all in all
19:35:18 <dc_swig> Added comment D5.
19:50:04 <ows> ows has joined #swig
19:58:56 <crschmidt> oops, i broke the D4 link
19:59:38 <crschmidt> D: See Also the [http://crschmidt.net/tmp/photo_generation.txt|Program Output] for the selected file. It's still a bit verbose, but not too bad, all in all
19:59:38 <dc_swig> Added comment D6.
19:59:45 <crschmidt> D5:""
19:59:46 <dc_swig> Deleted comment D5.
20:01:07 <kasei> it's silly how similar that is to a program i used to use
20:04:00 <kasei> i wonder how many people have made that program before, in one form or another
20:04:15 <crschmidt> heh
20:04:18 <crschmidt> i'm sure many
20:04:30 <crschmidt> the only thing this does that most others don't (probably) is load from an existing foaf file
20:06:13 <kasei> a file, or an existing rdf store? or both?
20:07:42 <topping> topping has quit
20:07:56 <crschmidt> right now, a file. perhaps soon, an rdf store, dunno. i'm working with RDFLib, which is new to me ;)
20:08:31 <kasei> right
20:08:48 <kasei> mine now won't load drom a file, but is backed by a redland store
20:08:53 <crschmidt> Right
20:08:56 <crschmidt> That's what I started out with
20:09:01 <kasei> and i dropped the cli :)
20:09:03 <crschmidt> until that whole "forgot to install the bindings" thing :)
20:09:23 <crschmidt> i can't imagine doing this nearly as quickly in a non-cli fashion
20:09:47 <kasei> i couldn't either, until i started dealing with the number of images I have.
20:10:16 <kasei> at that point, i realized that i needed to automate the import of everything I could, and have a graphical input for people and things.
20:10:26 <crschmidt> Why graphical input for people though?
20:10:52 <kasei> well, through a gui. it's a combination of drop-down menu and buttons of the most recently used.
20:11:07 <crschmidt> Create one foaf file, with everyone you could want. Load that FOAF file into a model. Then just type a nick
20:11:09 <kasei> the whole thing centers around needing to see the image you're annotating right next to the annotations.
20:11:26 <crschmidt> Yeah, I'm going to be doing that via bash
20:11:49 <crschmidt> for i in `ls`; do xview $i; echo "$i" | python core.py; done
20:12:10 <crschmidt> (I'm not sure how to get things into python, I haven't worked that bit out yet)
20:12:23 <crschmidt> but that's the general idea
20:12:43 <Arnia> Be cool to see that sort of functionality in f-spot
20:13:09 <crschmidt> never heard of fspot
20:13:33 <kasei> i tried exactly the same thing, but not using xview.
20:13:43 <kasei> hopefully it works for you better than it did me :)
20:13:44 <crschmidt> No? What were you using?
20:13:47 <crschmidt> Yeah
20:13:53 <crschmidt> I only take a couple dozen photos a week
20:13:58 <Arnia> .g f-spot
20:13:59 <kasei> i found having it in the same window was crucial to my productivity
20:13:59 <crschmidt> and i only have 1200 or so images to annotate
20:14:04 <crschmidt> * crschmidt nods
20:14:06 <phenny> f-spot: http://www.gnome.org/projects/f-spot/
20:14:12 <kasei> ah, yeah.
20:14:27 <crschmidt> maybe you're right, but moving my hand off the keyboard would be a major slowdown for me
20:14:29 <kasei> i'm finishing up the annotations on roughly 10k
20:14:34 <Arnia> * Arnia adds it to his to-do list
20:19:29 <bska|mobile> bska|mobile has joined #swig
20:21:47 <crschmidt> * crschmidt afk now, bbl
20:26:09 <topping> topping has joined #swig
20:28:25 <bballizlife> bballizlife has quit
20:30:05 <bballizlife> bballizlife has joined #swig
20:42:02 <sandro> sandro has quit
21:00:09 <topping> topping has quit
21:01:22 <bijan> bijan has quit
21:43:48 <ows> ows has quit
21:46:16 <ows> ows has joined #swig
21:59:38 <samsamoa> samsamoa has joined #swig
21:59:50 <samsamoa> samsamoa has left #swig
22:06:51 <topping> topping has joined #swig
22:12:53 <bska|mobile> bska|mobile has quit
22:17:00 <balbinus> balbinus has quit
22:18:43 <balbinus6> balbinus6 has joined #swig
22:21:05 <bska|mobile> bska|mobile has joined #swig
22:21:46 <balbinus6> balbinus6 is now known as balbinus
22:40:40 <eaon> eaon has joined #swig
22:57:44 <Arnia> Arnia has quit
22:58:33 <topping> topping has quit
22:59:02 <bska|mobile> bska|mobile has quit
23:27:15 <LotR_> LotR_ has joined #swig
23:27:15 <LotR> LotR has quit
23:41:18 <Arnia> Arnia has joined #swig
23:43:46 <ows> ows has quit
23:47:53 <LotR_> LotR_ has quit
23:53:15 <ows> ows has joined #swig
